{
    "action_name": "add_seats",
    "contract_number": "712100110318",
    "po_number": "bauti01",
    "net_amount": "873800",
    "line_items": [
        {
            "subscription_id": "e0c01fa3-5511-4d52-ac7d-88e1667d5fff",
            "part_number": "001H1-004905-T999",
            "quantity": 4,
            "net_amount": "873800"
        }
    ]
}